/home/student/NetBeansProjects/edairy/src/main/java/in/ac/gpckasaragod/ediary/EDIARY.java
/home/student/NetBeansProjects/edairy/src/main/java/in/ac/gpckasaragod/ediary/Service/impl/DayToDayServiceImpl.java
/home/student/NetBeansProjects/edairy/src/main/java/in/ac/gpckasaragod/ediary/ui/MilkSocietyDetailsForm.java
/home/student/NetBeansProjects/edairy/src/main/java/in/ac/gpckasaragod/ediary/ui/DayToDayDetailForm.java
/home/student/NetBeansProjects/edairy/src/main/java/in/ac/gpckasaragod/ediary/Service/MilkSocietyService.java
/home/student/NetBeansProjects/edairy/src/main/java/in/ac/gpckasaragod/ediary/ui/MilkSocietyDetailForm.java
/home/student/NetBeansProjects/edairy/src/main/java/in/ac/gpckasaragod/ediary/Service/impl/ConnectionServiceImpl.java
/home/student/NetBeansProjects/edairy/src/main/java/in/ac/gpckasaragod/ediary/Service/DayToDayService.java
/home/student/NetBeansProjects/edairy/src/main/java/in/ac/gpckasaragod/ediary/model/ui/data/DaytoDay.java
/home/student/NetBeansProjects/edairy/src/main/java/in/ac/gpckasaragod/ediary/model/ui/data/MilkSociety.java
/home/student/NetBeansProjects/edairy/src/main/java/in/ac/gpckasaragod/ediary/ui/DayToDayDetailsForm.java
/home/student/NetBeansProjects/edairy/src/main/java/in/ac/gpckasaragod/ediary/Service/ConnectionService.java
/home/student/NetBeansProjects/edairy/src/main/java/in/ac/gpckasaragod/ediary/model/ui/MilkSocietyUiModel.java
/home/student/NetBeansProjects/edairy/src/main/java/MilkSocietyUiModel/java.java
/home/student/NetBeansProjects/edairy/src/main/java/in/ac/gpckasaragod/ediary/Service/impl/MilkSocietyServiceImpl.java
